%YAML 1.1
%TAG !u! tag:unity3d.com,2011:
--- !u!1001 &4629794976841412558
PrefabInstance:
  m_ObjectHideFlags: 0
  serializedVersion: 2
  m_Modification:
    m_TransformParent: {fileID: 0}
    m_Modifications:
    - target: {fileID: 1475195282222415099, guid: dc5d953f59eaacc439da9431688c3d7f, type: 3}
      propertyPath: shootDelay
      value: 3
      objectReference: {fileID: 0}
    - target: {fileID: 1475195282222415099, guid: dc5d953f59eaacc439da9431688c3d7f, type: 3}
      propertyPath: shootPower
      value: 2
      objectReference: {fileID: 0}
    - target: {fileID: 1475195282222415099, guid: dc5d953f59eaacc439da9431688c3d7f, type: 3}
      propertyPath: _shootDelay
      value: 3
      objectReference: {fileID: 0}
    - target: {fileID: 1475195282222415099, guid: dc5d953f59eaacc439da9431688c3d7f, type: 3}
      propertyPath: _shootPower
      value: 2
      objectReference: {fileID: 0}
    - target: {fileID: 1475195282222415099, guid: dc5d953f59eaacc439da9431688c3d7f, type: 3}
      propertyPath: _bulletSpeed
      value: 1.5
      objectReference: {fileID: 0}
    - target: {fileID: 1475195282222415099, guid: dc5d953f59eaacc439da9431688c3d7f, type: 3}
      propertyPath: _bulletPrefab
      value: 
      objectReference: {fileID: 6251641374332089583, guid: 4fc053f183162064eadf913cfc1fa09f, type: 3}
    - target: {fileID: 1475195282222415099, guid: dc5d953f59eaacc439da9431688c3d7f, type: 3}
      propertyPath: _shootDistance
      value: 3
      objectReference: {fileID: 0}
    - target: {fileID: 3816494759538001924, guid: dc5d953f59eaacc439da9431688c3d7f, type: 3}
      propertyPath: m_Name
      value: Tower 1
      objectReference: {fileID: 0}
    - target: {fileID: 5512846655642579326, guid: dc5d953f59eaacc439da9431688c3d7f, type: 3}
      propertyPath: m_RootOrder
      value: 0
      objectReference: {fileID: 0}
    - target: {fileID: 5512846655642579326, guid: dc5d953f59eaacc439da9431688c3d7f, type: 3}
      propertyPath: m_LocalPosition.x
      value: 0
      objectReference: {fileID: 0}
    - target: {fileID: 5512846655642579326, guid: dc5d953f59eaacc439da9431688c3d7f, type: 3}
      propertyPath: m_LocalPosition.y
      value: 0
      objectReference: {fileID: 0}
    - target: {fileID: 5512846655642579326, guid: dc5d953f59eaacc439da9431688c3d7f, type: 3}
      propertyPath: m_LocalPosition.z
      value: 0
      objectReference: {fileID: 0}
    - target: {fileID: 5512846655642579326, guid: dc5d953f59eaacc439da9431688c3d7f, type: 3}
      propertyPath: m_LocalRotation.w
      value: 1
      objectReference: {fileID: 0}
    - target: {fileID: 5512846655642579326, guid: dc5d953f59eaacc439da9431688c3d7f, type: 3}
      propertyPath: m_LocalRotation.x
      value: 0
      objectReference: {fileID: 0}
    - target: {fileID: 5512846655642579326, guid: dc5d953f59eaacc439da9431688c3d7f, type: 3}
      propertyPath: m_LocalRotation.y
      value: 0
      objectReference: {fileID: 0}
    - target: {fileID: 5512846655642579326, guid: dc5d953f59eaacc439da9431688c3d7f, type: 3}
      propertyPath: m_LocalRotation.z
      value: 0
      objectReference: {fileID: 0}
    - target: {fileID: 5512846655642579326, guid: dc5d953f59eaacc439da9431688c3d7f, type: 3}
      propertyPath: m_LocalEulerAnglesHint.x
      value: 0
      objectReference: {fileID: 0}
    - target: {fileID: 5512846655642579326, guid: dc5d953f59eaacc439da9431688c3d7f, type: 3}
      propertyPath: m_LocalEulerAnglesHint.y
      value: 0
      objectReference: {fileID: 0}
    - target: {fileID: 5512846655642579326, guid: dc5d953f59eaacc439da9431688c3d7f, type: 3}
      propertyPath: m_LocalEulerAnglesHint.z
      value: 0
      objectReference: {fileID: 0}
    m_RemovedComponents: []
  m_SourcePrefab: {fileID: 100100000, guid: dc5d953f59eaacc439da9431688c3d7f, type: 3}
